[gd_scene load_steps=3 format=2]

[ext_resource path="res://resources/minimal_industry.png" type="Texture" id=1]

[sub_resource type="RectangleShape2D" id=1]

custom_solver_bias = 0.0
extents = Vector2( 8, 8 )

[node name="Node" type="Node"]

[node name="box" type="Sprite" parent="." index="0"]

texture = ExtResource( 1 )
region_enabled = true
region_rect = Rect2( 272, 416, 16, 16 )
_sections_unfolded = [ "Region" ]

[node name="StaticBody2D" type="StaticBody2D" parent="box" index="0"]

input_pickable = false
collision_layer = 1
collision_mask = 1
constant_linear_velocity = Vector2( 0, 0 )
constant_angular_velocity = 0.0
friction = 1.0
bounce = 0.0

[node name="CollisionShape2D" type="CollisionShape2D" parent="box/StaticBody2D" index="0"]

shape = SubResource( 1 )

[node name="box2" type="Sprite" parent="." index="1"]

position = Vector2( 20, 0 )
texture = ExtResource( 1 )
region_enabled = true
region_rect = Rect2( 32, 432, 16, 16 )
_sections_unfolded = [ "Region" ]


