[gd_resource type="TileSet" load_steps=4 format=2]

[ext_resource path="res://resources/minimal_industry.png" type="Texture" id=1]

[sub_resource type="RectangleShape2D" id=1]

custom_solver_bias = 0.0
extents = Vector2( 8, 8 )

[sub_resource type="RectangleShape2D" id=2]

custom_solver_bias = 0.0
extents = Vector2( 8, 1 )

[resource]

0/name = "box"
0/texture = ExtResource( 1 )
0/tex_offset = Vector2( 0, 0 )
0/modulate = Color( 1, 1, 1, 1 )
0/region = Rect2( 272, 416, 16, 16 )
0/is_autotile = false
0/occluder_offset = Vector2( 8, 8 )
0/navigation_offset = Vector2( 8, 8 )
0/shapes = [ {
"autotile_coord": Vector2( 0, 0 ),
"one_way": false,
"shape": SubResource( 1 ),
"shape_transform": Transform2D( 1, 0, 0, 1, 8, 8 )
} ]
1/name = "box2"
1/texture = ExtResource( 1 )
1/tex_offset = Vector2( 0, 0 )
1/modulate = Color( 1, 1, 1, 1 )
1/region = Rect2( 32, 432, 16, 16 )
1/is_autotile = false
1/occluder_offset = Vector2( 8, 8 )
1/navigation_offset = Vector2( 8, 8 )
1/shapes = [ {
"autotile_coord": Vector2( 0, 0 ),
"one_way": true,
"shape": SubResource( 2 ),
"shape_transform": Transform2D( 1, 0, 0, 1, 8, 1 )
} ]

